[
    {
        "id": "2220",
        "link": "https://tecnologeria.com/101/ruby-on-rails",
        "img": "./assets/images/101-02RoR-Web-1024x1024.jpg",
        "imgSet": "https://tecnologeria.com/wp-content/uploads/2020/01/101-02RoR-Web-1024x1024.jpg 1024w, https://tecnologeria.com/wp-content/uploads/2020/01/101-02RoR-Web-300x300.jpg 300w, https://tecnologeria.com/wp-content/uploads/2020/01/101-02RoR-Web-150x150.jpg 150w, https://tecnologeria.com/wp-content/uploads/2020/01/101-02RoR-Web-768x768.jpg 768w, https://tecnologeria.com/wp-content/uploads/2020/01/101-02RoR-Web.jpg 1499w",
        "date": "17 enero, 2020",
        "title": "101",
        "stitle": "Ruby on Rails 101",
        "episodios": "Temporada - Episodio "
    },
    {
        "id": "2212",
        "link": "https://tecnologeria.com/entrevistas/8x02/agile-transformacion-cultural",
        "img": "./assets/Entrevistas8x02-Web-1024x1024.jpg",
        "imgSet": "https://tecnologeria.com/wp-content/uploads/2020/01/101-02RoR-Web-1024x1024.jpg 1024w, https://tecnologeria.com/wp-content/uploads/2020/01/101-02RoR-Web-300x300.jpg 300w, https://tecnologeria.com/wp-content/uploads/2020/01/101-02RoR-Web-150x150.jpg 150w, https://tecnologeria.com/wp-content/uploads/2020/01/101-02RoR-Web-768x768.jpg 768w, https://tecnologeria.com/wp-content/uploads/2020/01/101-02RoR-Web.jpg 1499w",
        "date": "10 enero, 2020",
        "title": "LA TECNOLOGERÍA ENTREVISTAS",
        "stitle": "La Agilidad y la transformación cultural de las organizaciones",
        "episodios": "TEMPORADA 8 - EPISODIO 2"
    },
    {
        "id": "2204",
        "link": "https://tecnologeria.com/run/6x01/blasphemous-kickstarter/",
        "img": "./assets/images/RUN6x01-Web-1024x1024.jpg",
        "imgSet": "https://tecnologeria.com/wp-content/uploads/2019/12/RUN6x01-Web-1024x1024.jpg 1024w, https://tecnologeria.com/wp-content/uploads/2019/12/RUN6x01-Web-300x300.jpg 300w, https://tecnologeria.com/wp-content/uploads/2019/12/RUN6x01-Web-150x150.jpg 150w, https://tecnologeria.com/wp-content/uploads/2019/12/RUN6x01-Web-768x768.jpg 768w, https://tecnologeria.com/wp-content/uploads/2019/12/RUN6x01-Web.jpg 1499w",
        "date": "27 diciembre, 2019",
        "title": "RUN",
        "stitle": "Blasphemous: cómo sobrevivir al éxito de Kickstarter",
        "episodios": "TEMPORADA 6 - EPISODIO 1"
    },
    {
        "id": "2187",
        "link": "https://tecnologeria.com/3alcubo/juegos-losetas",
        "img": "./assets/images/3AlCubo3x02-Web-1024x1024.jpg",
        "imgSet": "https://tecnologeria.com/wp-content/uploads/2020/01/101-02RoR-Web-1024x1024.jpg 1024w, https://tecnologeria.com/wp-content/uploads/2020/01/101-02RoR-Web-300x300.jpg 300w, https://tecnologeria.com/wp-content/uploads/2020/01/101-02RoR-Web-150x150.jpg 150w, https://tecnologeria.com/wp-content/uploads/2020/01/101-02RoR-Web-768x768.jpg 768w, https://tecnologeria.com/wp-content/uploads/2020/01/101-02RoR-Web.jpg 1499w",
        "date": "20 diciembre, 2019",
        "title": "3 AL CUBO",
        "stitle": "3x02 - Los mejores juegos de colocación de losetas",
        "episodios": "TEMPORADA 3 - EPISODIO 2"
    }
]